{
    "vertex": {
        "points.vert": [
            {
                "name": "pointSize",
                "vv_type": "size",
                "qualifier": "uniform"
            }
        ],
        "symbols.vert": [
            {
                "name": "symbolSize",
                "vv_type": "size",
                "qualifier": "attribute"
            }
        ],
        "figures.vert": [
            {
                "name": "figureSize",
                "vv_type": "size",
                "qualifier": "attribute"
            }
        ]
    },
    "fragment": {
        "points.frag": [
            {
                "name": "pointColor",
                "vv_type": "color",
                "qualifier": "uniform"
            },
            {
                "name": "pointAlpha",
                "vv_type": "opacity",
                "qualifier": "uniform"
            },
            {
                "name": "pointShape",
                "vv_type": "shape",
                "qualifier": "uniform"
            }
        ],
        "polygons.frag": [
            {
                "name": "polygonColor",
                "vv_type": "color",
                "qualifier": "uniform"
            },
            {
                "name": "polygonAlpha",
                "vv_type": "opacity",
                "qualifier": "uniform"
            },
            {
                "name": "polygonPattern",
                "vv_type": "texture",
                "qualifier": "uniform"
            }
        ],
        "symbols.frag": [
            {
                "name": "symbolShape",
                "vv_type": "shape",
                "qualifier": "uniform"
            },
            {
                "name": "symbolColor",
                "vv_type": "color",
                "qualifier": "uniform"
            },
            {
                "name": "symbolAlpha",
                "vv_type": "opacity",
                "qualifier": "uniform"
            }
        ],
        "figures.frag": [
            {
                "name": "figureOrientation",
                "vv_type": "orientation",
                "qualifier": "uniform"
            },
            {
                "name": "figureColor",
                "vv_type": "color",
                "qualifier": "uniform"
            },
            {
                "name": "figureAlpha",
                "vv_type": "opacity",
                "qualifier": "uniform"
            }
        ],
        "lines.frag": [
            {
                "name": "lineColor",
                "vv_type": "color",
                "qualifier": "uniform"
            },
            {
                "name": "lineAlpha",
                "vv_type": "opacity",
                "qualifier": "uniform"
            }
        ]
    }
}